\relax 
\ifx\hyper@anchor\@undefined
\global \let \oldcontentsline\contentsline
\gdef \contentsline#1#2#3#4{\oldcontentsline{#1}{#2}{#3}}
\global \let \oldnewlabel\newlabel
\gdef \newlabel#1#2{\newlabelxx{#1}#2}
\gdef \newlabelxx#1#2#3#4#5#6{\oldnewlabel{#1}{{#2}{#3}}}
\AtEndDocument{\let \contentsline\oldcontentsline
\let \newlabel\oldnewlabel}
\else
\global \let \hyper@last\relax 
\fi

\@writefile{toc}{\contentsline {paragraph}{}{1}{section*.2}}
\@writefile{toc}{\contentsline {paragraph}{}{1}{section*.4}}
\@writefile{lot}{\contentsline {table}{\numberline {1}{\ignorespaces Gender statistics for Graduating Classes}}{1}{table.1}}
\newlabel{table:1}{{1}{1}{Gender statistics for Graduating Classes\relax }{table.1}{}}
\@writefile{toc}{\contentsline {paragraph}{}{1}{section*.6}}
\@writefile{lot}{\contentsline {table}{\numberline {2}{\ignorespaces Statistics for ethnic proportions in corresponding graduating classes}}{2}{table.2}}
\newlabel{table:2}{{2}{2}{Statistics for ethnic proportions in corresponding graduating classes\relax }{table.2}{}}
\@writefile{lof}{\contentsline {figure}{\numberline {1}{\ignorespaces Graph of gender distribution over time}}{2}{figure.1}}
\newlabel{fig: gender statistics}{{1}{2}{Graph of gender distribution over time\relax }{figure.1}{}}
\@writefile{toc}{\contentsline {paragraph}{}{2}{section*.7}}
\@writefile{lof}{\contentsline {figure}{\numberline {2}{\ignorespaces Graph of ethnic distribution over time}}{3}{figure.2}}
\newlabel{fig: ethnicity statistics}{{2}{3}{Graph of ethnic distribution over time\relax }{figure.2}{}}
